edX Data Wrangling Codes and Results
…
People %>% as_tibble()

## # A tibble: 20,370 x 26
##    playerID  birthYear birthMonth birthDay birthCountry birthState birthCity   
##    <chr>         <int>      <int>    <int> <chr>        <chr>      <chr>       
##  1 aardsda01      1981         12       27 USA          CO         Denver      
##  2 aaronha01      1934          2        5 USA          AL         Mobile      
##  3 aaronto01      1939          8        5 USA          AL         Mobile      
##  4 aasedo01       1954          9        8 USA          CA         Orange      
##  5 abadan01       1972          8       25 USA          FL         Palm Beach  
##  6 abadfe01       1985         12       17 D.R.         La Romana  La Romana   
##  7 abadijo01      1850         11        4 USA          PA         Philadelphia
##  8 abbated01      1877          4       15 USA          PA         Latrobe     
##  9 abbeybe01      1869         11       11 USA          VT         Essex       
## 10 abbeych01      1866         10       14 USA          NE         Falls City  
## # ... with 20,360 more rows, and 19 more variables: deathYear <int>,
## #   deathMonth <int>, deathDay <int>, deathCountry <chr>, deathState <chr>,
## #   deathCity <chr>, nameFirst <chr>, nameLast <chr>, nameGiven <chr>,
## #   weight <int>, height <int>, bats <fct>, throws <fct>, debut <chr>,
## #   finalGame <chr>, retroID <chr>, bbrefID <chr>, deathDate <date>,
## #   birthDate <date>
…
lapply(nodes[1:4], html_table)

## [[1]]
## # A tibble: 1 x 2
##   X1    X2                                                                      
##   <lgl> <chr>                                                                   
## 1 NA    "Salary Stats 1967-2019\nTop ML Player Salaries / Baseball's Luxury Tax"
## 
## [[2]]
## # A tibble: 30 x 3
##     RANK TEAM                 Payroll  
##    <int> <chr>                <chr>    
##  1     1 Boston Red Sox       $235.65M 
##  2     2 San Francisco Giants $208.51M 
##  3     3 Los Angeles Dodgers  $186.14M 
##  4     4 Chicago Cubs         $183.46M 
##  5     5 Washington Nationals $181.59M 
##  6     6 Los Angeles Angels   $175.1M  
##  7     7 New York Yankees     $168.54M 
##  8     8 Seattle Mariners     $162.48M 
##  9     9 Toronto Blue Jays    $162.316M
## 10    10 St. Louis Cardinals  $161.01M 
## # ... with 20 more rows
## 
## [[3]]
## # A tibble: 31 x 5
##    X1    X2                   X3           X4            X5           
##    <chr> <chr>                <chr>        <chr>         <chr>        
##  1 Rank  Team                 25 Man       Disabled List Total Payroll
##  2 1     Los Angeles Dodgers  $155,887,854 $37,354,166   $242,065,828 
##  3 2     New York Yankees     $168,045,699 $5,644,000    $201,539,699 
##  4 3     Boston Red Sox       $136,780,500 $38,239,250   $199,805,178 
##  5 4     Detroit Tigers       $168,500,600 $11,750,000   $199,750,600 
##  6 5     Toronto Blue Jays    $159,175,968 $2,169,400    $177,795,368 
##  7 6     Texas Rangers        $115,162,703 $39,136,360   $175,909,063 
##  8 7     San Francisco Giants $169,504,611 $2,500,000    $172,354,611 
##  9 8     Chicago Cubs         $170,189,880 $2,000,000    $172,189,880 
## 10 9     Washington Nationals $163,111,918 $535,000      $167,846,918 
## # ... with 21 more rows
## 
## [[4]]
## # A tibble: 30 x 5
##     Rank Team      `Opening Day` `Avg Salary` Median     
##    <int> <chr>     <chr>         <chr>        <chr>      
##  1     1 Dodgers   $ 223,352,402 $ 7,445,080  $ 5,166,666
##  2     2 Yankees   $ 213,472,857 $ 7,361,133  $ 3,300,000
##  3     3 Red Sox   $ 182,161,414 $ 6,072,047  $ 3,500,000
##  4     4 Tigers    $ 172,282,250 $ 6,891,290  $ 3,000,000
##  5     5 Giants    $ 166,495,942 $ 5,946,284  $ 4,000,000
##  6     6 Nationals $ 166,010,977 $ 5,724,516  $ 2,500,000
##  7     7 Angels    $ 146,449,583 $ 5,049,986  $ 1,312,500
##  8     8 Rangers   $ 144,307,373 $ 4,509,605  $ 937,500  
##  9     9 Phillies  $ 133,048,000 $ 4,434,933  $ 700,000  
## 10    10 Blue Jays $ 126,369,628 $ 4,357,573  $ 1,650,000
## # ... with 20 more rows

Question 2: For the last 3 components of nodes, which of the
following are true?

node_length <- length(nodes)

html_table(nodes[[node_length]]) #last node

## # A tibble: 54 x 4
##    X1    X2       X3           X4     
##    <chr> <chr>    <chr>        <chr>  
##  1 Year  Minimum  "Average"    "% Chg"
##  2 2019  $555,000 ""           "-"    
##  3 2018  $545,000 "$4,520,000" ""     
##  4 2017  $535,000 "$4,470,000" "5.4"  
##  5 2016  $507,500 "$4,400,000" "-"    
##  6 2015  $507,500 "$4,250,000" "-"    
##  7 2014  $507,500 "$3,820,000" "12.8" 
##  8 2013  $480,000 "$3,386,212" "5.4"  
##  9 2012  $480,000 "$3,440,000" "3.8"  
## 10 2011  $414,500 "$3,305,393" "0.2"  
## # ... with 44 more rows

html_table(nodes[[node_length-1]]) #second to last node

## # A tibble: 31 x 3
##    X1          X2          X3        
##    <chr>       <chr>       <chr>     
##  1 Team        Payroll     Average   
##  2 NY Yankees  $92,538,260 $3,190,974
##  3 Los Angeles $88,124,286 $3,263,862
##  4 Atlanta     $84,537,836 $2,817,928
##  5 Baltimore   $81,447,435 $2,808,532
##  6 Arizona     $81,027,833 $2,893,851
##  7 NY Mets     $79,509,776 $3,180,391
##  8 Boston      $77,940,333 $2,598,011
##  9 Cleveland   $75,880,871 $2,918,495
## 10 Texas       $70,795,921 $2,722,920
## # ... with 21 more rows

html_table(nodes[[node_length-2]]) #third to last node

## # A tibble: 31 x 3
##    X1          X2           X3        
##    <chr>       <chr>        <chr>     
##  1 Team        Payroll      Average   
##  2 NY Yankees  $109,791,893 $3,541,674
##  3 Boston      $109,558,908 $3,423,716
##  4 Los Angeles $108,980,952 $3,757,964
##  5 NY Mets     $93,174,428  $3,327,658
##  6 Cleveland   $91,974,979  $3,065,833
##  7 Atlanta     $91,851,687  $2,962,958
##  8 Texas       $88,504,421  $2,854,981
##  9 Arizona     $81,206,513  $2,900,233
## 10 St. Louis   $77,270,855  $2,664,512
## # ... with 21 more rows

Question 3:

tab_1 <- html_table(nodes[[10]])
tab_1

## # A tibble: 31 x 4
##    X1    X2                    X3           X4        
##    <chr> <chr>                 <chr>        <chr>     
##  1 No.   Team                  Payroll      Average   
##  2 1.    New York Yankees      $206,333,389 $8,253,336
##  3 2.    Boston Red Sox        $162,747,333 $5,611,977
##  4 3.    Chicago Cubs          $146,859,000 $5,439,222
##  5 4.    Philadelphia Phillies $141,927,381 $5,068,835
##  6 5.    New York Mets         $132,701,445 $5,103,902
##  7 6.    Detroit Tigers        $122,864,929 $4,550,553
##  8 7.    Chicago White Sox     $108,273,197 $4,164,354
##  9 8.    Los Angeles Angels    $105,013,667 $3,621,161
## 10 9.    Seattle Mariners      $98,376,667  $3,513,452
## # ... with 21 more rows

tab_2 <- html_table(nodes[[19]])
tab_2

## # A tibble: 31 x 3
##    X1          X2           X3        
##    <chr>       <chr>        <chr>     
##  1 Team        Payroll      Average   
##  2 NY Yankees  $109,791,893 $3,541,674
##  3 Boston      $109,558,908 $3,423,716
##  4 Los Angeles $108,980,952 $3,757,964
##  5 NY Mets     $93,174,428  $3,327,658
##  6 Cleveland   $91,974,979  $3,065,833
##  7 Atlanta     $91,851,687  $2,962,958
##  8 Texas       $88,504,421  $2,854,981
##  9 Arizona     $81,206,513  $2,900,233
## 10 St. Louis   $77,270,855  $2,664,512
## # ... with 21 more rows
…
Question 4-5:

library(rvest)
library(tidyverse)
url <- "https://en.wikipedia.org/w/index.php?title=Opinion_polling_for_the_United_Kingdom_European_Union_membership_referendum&oldid=896735054"
h <- read_html(url)

tab <- html_nodes(h, "table")
lapply(tab[1:42], html_table)

## [[1]]
## # A tibble: 27 x 21
##    X1    X2    X3    X4    X5    X6    X7    X8    X9    X10   X11   X12   X13  
##    <chr> <chr> <chr> <chr> <chr> <chr> <chr> <chr> <chr> <chr> <chr> <chr> <chr>
##  1 "Par~ <NA>  <NA>  <NA>  <NA>  <NA>  <NA>  <NA>  <NA>  <NA>  <NA>  <NA>  <NA> 
##  2 "UK ~ <NA>  <NA>  <NA>  <NA>  <NA>  <NA>  <NA>  <NA>  <NA>  <NA>  <NA>  <NA> 
##  3 ""    <NA>  <NA>  <NA>  <NA>  <NA>  <NA>  <NA>  <NA>  <NA>  <NA>  <NA>  <NA> 
##  4 "Acc~ <NA>  <NA>  <NA>  <NA>  <NA>  <NA>  <NA>  <NA>  <NA>  <NA>  <NA>  <NA> 
##  5 "197~ <NA>  <NA>  <NA>  <NA>  <NA>  <NA>  <NA>  <NA>  <NA>  <NA>  <NA>  <NA> 
##  6 "Tre~ Sing~ (UK ~ Maas~ (UK ~ Trea~ (UK ~ Trea~ (UK ~ Trea~ (UK ~ <NA>  <NA> 
##  7 "Sin~ (UK ~ <NA>  <NA>  <NA>  <NA>  <NA>  <NA>  <NA>  <NA>  <NA>  <NA>  <NA> 
##  8 "Maa~ (UK ~ <NA>  <NA>  <NA>  <NA>  <NA>  <NA>  <NA>  <NA>  <NA>  <NA>  <NA> 
##  9 "Tre~ (UK ~ <NA>  <NA>  <NA>  <NA>  <NA>  <NA>  <NA>  <NA>  <NA>  <NA>  <NA> 
## 10 "Tre~ (UK ~ <NA>  <NA>  <NA>  <NA>  <NA>  <NA>  <NA>  <NA>  <NA>  <NA>  <NA> 
## # ... with 17 more rows, and 8 more variables: X14 <chr>, X15 <chr>, X16 <chr>,
## #   X17 <chr>, X18 <chr>, X19 <chr>, X20 <chr>, X21 <chr>
## 
## [[2]]
…
## 3 Elections Etc.[15]           23 June "50.6%" "49.4%" N/A       1.2%  "Twelve ~
## 4 HuffPost Pollster[16]        23 June "45.8%" "45.3%" 9%        0.5%  ""       
## 5 Number Cruncher Politics[17] 22 June "46%"   "44%"   10%       2%    "Equal w~
## 6 Financial Times[18]          13 June "48%"   "46%"   6%        2%    "Five mo~
## 7 The Telegraph[20]            21 June "51%"   "49%"   N/A       2%    "Six mos~
## 8 The Economist[21]            6 June  "44%"   "44%"   9%        0%    "Exclude~
## 
## [[5]]
## # A tibble: 1 x 2
##   X1    X2                                                                      
##   <lgl> <chr>                                                                   
## 1 NA    This list is incomplete; you can help by adding missing items.  (Novemb~
## 
## [[6]]
## # A tibble: 134 x 9
##    `Date(s) conducted` Remain  Leave   Undecided Lead  Sample     `Conducted by`
##    <chr>               <chr>   <chr>   <chr>     <chr> <chr>      <chr>         
##  1 Date(s) conducted   ""      ""      Undecided Lead  Sample     Conducted by  
##  2 23 June 2016        "48.1%" "51.9%" N/A       3.8%  33,577,342 Results of th~
##  3 23 June             "52%"   "48%"   N/A       4%    4,772      YouGov        
##  4 22 June             "55%"   "45%"   N/A       10%   4,700      Populus       
##  5 2022 June          "51%"   "49%"   N/A       2%    3,766      YouGov        
##  6 2022 June          "49%"   "46%"   1%        3%    1,592      Ipsos MORI    
##  7 2022 June          "44%"   "45%"   9%        1%    3,011      Opinium       
##  8 1722 June          "54%"   "46%"   N/A       8%    1,032      ComRes        
##  9 1722 June          "48%"   "42%"   11%       6%    1,032      ComRes        
## 10 1622 June          "41%"   "43%"   16%       2%    2,320      TNS           
## # ... with 124 more rows, and 2 more variables: Polling type <chr>, Notes <chr>
## 
## [[7]]
## # A tibble: 73 x 9
##    `Date(s) conducted` Remain Leave Undecided Sample `Conducted by` Notes  ``   
##    <chr>               <chr>  <chr> <chr>     <chr>  <chr>          <chr>  <chr>
##  1 Date(s) conducted   ""     ""    Undecided Sample Conducted by   "Note~ <NA> 
##  2 1718 Dec           "41%"  "42%" 17%       1,598  YouGov         ""     <NA> 
##  3 1214 Dec           "58%"  "32%" 10%       529    Ipsos MORI     ""     <NA> 
##  4 1113 Dec           "56%"  "35%" 8%        1,001  ComRes         ""     <NA> 
##  5 1113 Dec           "42%"  "41%" 17%       2,053  ICM            ""     <NA> 
##  6 46 Dec             "43%"  "39%" 17%       2,022  ICM            ""     <NA> 
##  7 23 Dec             "36%"  "43%" 21%       1,001  ORB            ""     <NA> 
##  8 30 Nov3 Dec        "40%"  "42%" 18%       10,015 Survation      "Incl~ <NA> 
##  9 2024 Nov           "41%"  "41%" 18%       4,317  YouGov         ""     <NA> 
## 10 1924 Nov           "40%"  "38%" 22%       1,699  YouGov         ""     <NA> 
## # ... with 63 more rows, and 1 more variable:  <chr>
## 
## [[8]]
## # A tibble: 46 x 9
##    `Date(s) conducted` Remain Leave Undecided Sample `Conducted by` Notes  ``   
##    <chr>               <chr>  <chr> <chr>     <chr>  <chr>          <chr>  <chr>
##  1 Date(s) conducted   ""     ""    Undecided Sample Conducted by   "Note~ <NA> 
##  2 1415 Dec           "40%"  "39%" 21%       1,648  YouGov         ""     <NA> 
##  3 30 Nov1 Dec        "42%"  "39%" 20%       1,763  YouGov         ""     <NA> 
##  4 2026 Nov           "38%"  "43%" 19%       1,641  YouGov         ""     <NA> 
##  5 2123 Nov           "32%"  "48%" 20%       2,049  ComRes         ""     <NA> 
##  6 2021 Nov           "40%"  "41%" 19%       1,970  YouGov         ""     <NA> 
##  7 1921 Nov           "40%"  "41%" 19%       2,314  YouGov         ""     <NA> 
##  8 1617 Nov           "39%"  "39%" 21%       1,589  YouGov         ""     <NA> 
##  9 7 Nov               "31%"  "54%" 15%       1,020  Survation      ""     <NA> 
## 10 23 Nov             "38%"  "41%" 21%       1,652  YouGov         ""     <NA> 
## # ... with 36 more rows, and 1 more variable:  <chr>
## 
## [[9]]
## # A tibble: 40 x 7
##    `Date(s) conducted` Remain Leave Undecided Sample  `Conducted by` Notes  
##    <chr>               <chr>  <chr> <chr>     <chr>   <chr>          <chr>  
##  1 Date(s) conducted   ""     ""    Undecided Sample  Conducted by   "Notes"
##  2 19 Dec             "37%"  "43%" 20%       Unknown YouGov         ""     
##  3 1011 Nov           "39%"  "39%" 22%       Unknown YouGov[35]     ""     
##  4 1314 Oct           "42%"  "37%" 20%       Unknown YouGov[35]     ""     
##  5 2327 Sep           "36%"  "44%" 20%       1,922   YouGov         ""     
##  6 1516 Sep           "42%"  "39%" 20%       Unknown YouGov[35]     ""     
##  7 1819 Aug           "46%"  "34%" 20%       Unknown YouGov[35]     ""     
##  8 68 Aug             "32%"  "53%" 15%       1,945   Opinium        ""     
##  9 45 Aug             "43%"  "35%" 22%       Unknown YouGov[35]     ""     
## 10 1824 Jul           "35%"  "45%" 21%       1,968   YouGov         ""     
## # ... with 30 more rows
## 
## [[10]]
…
## 
## [[15]]
## # A tibble: 7 x 6
##   `Date(s) conducted`   Remain  Leave   Undecided Sample `Held by`              
##   <chr>                 <chr>   <chr>   <chr>     <chr>  <chr>                  
## 1 Date(s) conducted     ""      ""      Undecided Sample Held by                
## 2 23 June 2016          "59.9%" "40.1%" N/A             London Results         
## 3 26 June 2016         "48%"   "35%"   13%       1,179  YouGov                 
## 4 26 April  1 May 2016 "51%"   "34%"   14%       1,005  Opinium/Evening Standa~
## 5 46 January 2016      "39%"   "34%"   27%       1,156  YouGov/LBC             
## 6 1719 November 2014   "45%"   "37%"   14%       1,124  YouGov/Evening Standard
## 7 2025 June 2013       "41%"   "39%"   20%       1,269  YouGov/Evening Standard
## 
## [[16]]
## # A tibble: 35 x 6
##    `Date(s) conducted` Remain  Leave   Undecided Sample `Held by`               
##    <chr>               <chr>   <chr>   <chr>     <chr>  <chr>                   
##  1 Date(s) conducted   ""      ""      Undecided Sample Held by                 
##  2 23 June 2016        "62.0%" "38.0%" N/A             Scotland Results        
##  3 612 Jun 2016       "58%"   "33%"   8%        1,000  Ipsos Mori/STV          
##  4 422 May 2016       "53%"   "24%"   23%       1,008  TNS[permanent dead link]
##  5 610 May 2016       "54%"   "32%"   14%       1,000  ICM/The Scotsman        
##  6 12 May 2016        "58%"   "19%"   19%       1,024  Survation/Daily Record  
##  7 2328 April 2016    "57%"   "33%"   11%       1,074  Panelbase/Sunday Times  
##  8 1825 April 2016    "66%"   "29%"   5%        1,015  Ipsos MORI/STV          
##  9 124 April 2016     "48%"   "21%"   31%       1,012  TNS                     
## 10 1520 April 2016    "54%"   "28%"   17%       1,005  Survation/Daily Record  
## # ... with 25 more rows
## 
## [[17]]
…
## 6 May 2016            "44%"   "20%"   35%       1,005      Ipsos MORI   "Questi~
## 7 1921 October 2015  "56.5%" "28.3%" 15.2%     2,517      LucidTalk    ""      
## 8 216 October 2015   "55%"   "13%"   32%       1,012      BBC/RT      ""      
## 
## [[20]]
## # A tibble: 4 x 6
##   `Date(s) conducted` Remain  Leave  Undecided Sample `Held by`          
##   <chr>               <chr>   <chr>  <chr>     <chr>  <chr>              
## 1 Date(s) conducted   ""      ""     Undecided Sample Held by            
## 2 23 June 2016        "95.9%" "4.1%" N/A             Gibraltar Results  
## 3 1315 May 2016      "94%"   "2%"   4%        596    Gibraltar Chronicle
## 4 1115 April 2016    "88%"   "8%"   3%        596    Gibraltar Chronicle
## 
## [[21]]
## # A tibble: 33 x 7
##    `Date(s) conducted` Remain Leave Undecided Sample `Held by`      Notes       
##    <chr>               <chr>  <chr> <chr>     <chr>  <chr>          <chr>       
##  1 Date(s) conducted   ""     ""    Undecided Sample Held by        "Notes"     
##  2 12 June 2015       "55%"  "24%" 18%       1,063  YouGov/Prospe~ "Northern I~
##  3 89 May 2015        "58%"  "24%" 16%       1,302  YouGov/Sunday~ "Northern I~
##  4 34 May 2015        "56%"  "20%" 20%       1,664  YouGov/The Sun "Northern I~
##  5 1920 April 2015    "57%"  "22%" 17%       2,078  YouGov/The Sun "Northern I~
##  6 2223 March 2015    "57%"  "22%" 18%       1,641  YouGov/The Sun "Northern I~
##  7 2223 February 2015 "57%"  "21%" 17%       1,772  YouGov/The Sun "Northern I~
##  8 2526 January 2015  "54%"  "25%" 16%       1,656  YouGov/The Sun "Northern I~
##  9 1819 January 2015  "57%"  "21%" 19%       1,747  YouGov/Britis~ "Northern I~
## 10 1415 Dec 2014      "55%"  "24%" 16%       1,648  YouGov/The Sun ""          
## # ... with 23 more rows
## 
## [[22]]
## # A tibble: 29 x 4
##    Country        Remain `Does not matter` Leave
##    <chr>          <chr>  <chr>             <chr>
##  1 Country        ""     ""                ""   
##  2 Austria        "41%"  "41%"             "19%"
##  3 Belgium        "49%"  "38%"             "13%"
##  4 Bulgaria       "67%"  "27%"             "7%" 
##  5 Croatia        "49%"  "41%"             "10%"
##  6 Cyprus         "35%"  "45%"             "19%"
##  7 Czech Republic "40%"  "47%"             "13%"
##  8 Denmark        "56%"  "31%"             "13%"
##  9 Estonia        "65%"  "28%"             "8%" 
## 10 Finland        "50%"  "39%"             "11%"
## # ... with 19 more rows
## 
## [[23]]
## # A tibble: 29 x 3
##    Country        Remain Leave
##    <chr>          <chr>  <chr>
##  1 Country        ""     ""   
##  2 Austria        "24%"  "76%"
##  3 Belgium        "34%"  "66%"
##  4 Bulgaria       "52%"  "48%"
##  5 Croatia        "36%"  "64%"
##  6 Cyprus         "33%"  "67%"
##  7 Czech Republic "42%"  "58%"
##  8 Denmark        "51%"  "49%"
##  9 Estonia        "44%"  "56%"
## 10 Finland        "30%"  "70%"
## # ... with 19 more rows
## 
## [[24]]
…
